{
  "version": "1.0.0-*",

  "dependencies": {
    "Microsoft.NETCore.App": {
      "type":"platform",
      "version": "1.0.0"
    },
    "xunit":"2.1.0",
    "dotnet-test-xunit": "1.0.0-rc2-192208-24",
    "Microsoft.EntityFrameworkCore.InMemory": "1.0.0",
  	"Microsoft.EntityFrameworkCore": "1.0.0",
    "Microsoft.AspNetCore.TestHost": "1.0.0",
    "Bogus": "8.0.1-beta-1",
    "Garaio.Academy.Core": "1.0.0-*",
    "Garaio.Academy.Data" : "1.0.0-*",
    "Garaio.Academy.Web" : "1.0.0-*"
  },

  "frameworks": {
    "netcoreapp1.0": {
      "imports": [
        "dotnet54",
        "portable-net45+win8" 
      ]
    }
  },

  "tooling": {
    "defaultNamespace": "Garaio.Academy.Tests"
  },

  "testRunner": "xunit",

  "buildOptions": {
    "debugType": "portable"
  }
}
